<?xml version="1.0" standalone="no"?>
<!DOCTYPE svg PUBLIC "-//W3C//DTD SVG 20010904//EN"
 "http://www.w3.org/TR/2001/REC-SVG-20010904/DTD/svg10.dtd">
<svg version="1.0" xmlns="http://www.w3.org/2000/svg"
 width="475.000000pt" height="335.000000pt" viewBox="0 0 475.000000 335.000000"
 preserveAspectRatio="xMidYMid meet">

<g transform="translate(0.000000,335.000000) scale(0.100000,-0.100000)"
fill="#000000" stroke="none">
<path d="M1092 2611 c-562 -318 -1024 -580 -1026 -582 -3 -2 197 -91 442 -198
246 -107 451 -197 456 -201 12 -11 -7 -81 -49 -183 -80 -192 -118 -445 -98
-650 5 -59 12 -109 14 -111 2 -2 24 0 49 5 79 17 406 23 520 10 213 -25 409
-89 573 -188 104 -63 241 -192 310 -293 l55 -81 100 119 c125 148 230 245 353
328 111 74 194 114 316 150 73 22 114 27 239 31 166 6 249 -5 401 -54 45 -15
86 -24 89 -20 4 4 9 80 12 170 6 241 -29 431 -115 622 -20 44 -36 95 -37 114
l-1 33 390 155 c215 85 438 173 497 196 98 38 106 43 85 53 -21 11 -2457 1111
-2522 1139 -30 13 -48 3 -1053 -564z"/>
</g>
</svg>
